{
    "killers" : {
        "Trapper" : {
            "Aliases" : ["Chuckles"],
            "German" : "Fallensteller"
        },
        "Wraith" : {
            "Aliases" : ["Banshee", "Bob"],
            "German" : "Geist"
        },
        "Hillbilly" : {
            "Aliases" : ["The Crooked"],
            "German" : "Hinterwäldler"
        },
        "Nurse" : {
            "Aliases" : [],
            "German" : "Krankenschwester"
        },
        "Shape" : {
            "Aliases" : ["Boogeyman", "Stalker"],
            "German" : "Wandler"
        },
        "Hag" : {
            "Aliases" : ["Witch"],
            "German" : "Hexe"
        },
        "Doctor" : {
            "Aliases" : ["Mu Yi"],
            "German" : "Doktor"
        },
        "Huntress" : {
            "Aliases" : ["Анна", "Bear"],
            "German" : "Jägerin"
        },
        "Cannibal" : {
            "Aliases" : ["Leatherface"],
            "German" : "Kannibale"
        },
        "Nightmare" : {
            "Aliases" : ["Sandman"],
            "German" : "Albtraum"
        },
        "Pig" : {
            "Aliases" : [],
            "German" : "Schwein"
        },
        "Clown" : {
            "Aliases" : ["Ringmaster", "Medicine"],
            "German" : "Clown"
        },
        "Spirit" : {
            "Aliases" : [],
            "German" : "Gespenst"
        },
        "Legion" : {
            "Aliases" : [],
            "German" : "Legion"
        },
        "Plague" : {
            "Aliases" : ["High Priestess of Babylon"],
            "German" : "Seuche"
        },
        "Ghost Face" : {
            "Aliases" : [],
            "German" : "Ghost Face"
        },
        "Demogorgon" : {
            "Aliases" : ["The Monster", "The Beast"],
            "German" : "Demogorgon"
        },
        "Oni" : {
            "Aliases" : [],
            "German" : "Oni"
        },
        "Deathslinger" : {
            "Aliases" : ["Collector", "Gunslinger"],
            "German" : "Todesbote"
        },
        "Executioner" : {
            "Aliases" : [],
            "German" : "Henker"
        },
        "Blight" : {
            "Aliases" : ["Alchemist"],
            "German" : "Fäule"
        }
    },
    "offerings" : {
        "Bog Laurel Sachet (Personal)": "Lokus-Lorbeer-Duftsäckchen",
        "Fresh Bog Laurel (Personal)": "Frische Lorbeerrosen",
        "Fragrant Bog Laurel (Personal)": "Wohlriechende Lorbeerrosen",
        "Crispleaf Amaranth Sachet (Personal)": "Fuchsschwanzduftkissen",
        "Fresh Crispleaf Amaranth (Personal)": "Frischer Fuchsschwanz",
        "Fragrant Crispleaf Amaranth (Personal)": "Wohlriechender Fuchsschwanz",
        "Primrose Blossom Sachet (Personal)": "Primelblütenduftkissen",
        "Fresh Primrose Blossom (Personal)": "Frische Primelblüten",
        "Fragrant Primrose Blossom (Personal)": "Wohlriechende Primelblüten",
        "Sweet William Sachet (Personal)": "Bartnelkenduftkissen",
        "Fresh Sweet William (Personal)": "Frische Bartnelke",
        "Fragrant Sweet William (Personal)": "Wohlriechende Bartnelke",
        "Sealed Envelope (Personal)": "Versiegelter Umschlag",
        "Escape! Cake (Personal)": "Kuchen der Flucht",
        "Bound Envelope (All Survivors)": "Gebundener Umschlag",
        "Tanager Wreath (Personal)": "Tangarkranz",
        "Devout Tanager Wreath (Personal)": "Andächtiger Tangarkranz",
        "Ardent Tanager Wreath (Personal)": "Inbrünstiger Tangarkranz",
        "Raven Wreath (Personal)": "Rabenkranz",
        "Devout Raven Wreath (Personal)": "Andächtiger Rabenkranz",
        "Ardent Raven Wreath (Personal)": "Inbrünstiger Rabenkranz",
        "Spotted Owl Wreath (Personal)": "Fleckenkauzkranz",
        "Devout Spotted Owl Wreath (Personal)": "Andächtiger Fleckenkauzkranz",
        "Ardent Spotted Owl Wreath (Personal)": "Inbrünstiger Fleckenkauzkranz",
        "Shrike Wreath (Personal)": "Würgerkranz",
        "Devout Shrike Wreath (Personal)": "Andächtiger Würgerkranz",
        "Ardent Shrike Wreath (Personal)": "Inbrünstiger Würgerkranz",
        "Hollow Shell (Personal)": "Leere Muschelschale",
        "Survivor Pudding (Personal)": "Pudding des Überlebenden",
        "Bloody Party Streamers (All Players)": "Blutige Partyluftschlangen",
        "Gruesome Gateau (All Players)": "Ekeltorte",
        "Ghastly Gateau (All Players)": "Torte des Grauens",
        "Red Envelope": "Roter Umschlag",
        "Pustula Petals": "Pusteblume",
        "Chalk Pouch": "Kreidebeutel",
        "Cream Chalk Pouch": "Cremekreide-Beutel",
        "Ivory Chalk Pouch": "Elfenbeinkreide-Beutel",
        "Salt Pouch": "Salzbeutel",
        "Black Salt Statuette": "Schwarze Salzstatuette",
        "Vigo's Jar of Salty Lips": "Vigos Gefäß der salzigen Lippen",
        "Cut Coin": "Gekappte Münze",
        "Scratched Coin": "Zerkratze Münze",
        "Tarnished Coin": "Getrübte Münze",
        "Shiny Coin": "Blanke Münze",
        "Clear Reagent": "Klares Reagenzglas",
        "Faint Reagent": "Mattes Reagenzglas",
        "Hazy Reagent": "Trübes Reagenzglas",
        "Murky Reagent": "Dunkles Reagenzglas",
        "Petrified Oak": "Versteinerte Eiche",
        "Moldy Oak": "Modrige Eiche",
        "Rotten Oak": "Morsche Eiche",
        "Putrid Oak": "Faulige Eiche",
        "Cypress Memento Mori": "Memento Mori aus Zypressenholz",
        "Ivory Memento Mori": "Memento Mori aus Elfenbein",
        "Ebony Memento Mori": "Memento Mori aus Ebenholz",
        "MacMillan Ledger Page": "MacMillan Kassenbuchseite",
        "Signed Ledger Page": "Unterzeichnete Kassenbuchseite",
        "MacMillan's Phalanx Bone": "MacMillans Fingerknochen",
        "The Pied Piper": "Der Rattenfänger",
        "Shredded Plate": "Zerfetztes Nummernschild",
        "Virginia Plate": "Nummernschild von Virginia",
        "Azarov's Key": "Azarovs Schlüssel",
        "Jigsaw Piece": "Puzzleteil",
        "Cattle Tag 28": "Rindermarke-28",
        "Cattle Tag 81": "Coldwind Rindermarke-81",
        "Heart Locket": "Herzmedaillon",
        "Yamaoka Family Crest": "Wappen der Yamaoka-Familie",
        "Lunacy Ticket": "Irrsinnsticket",
        "P. Elliott Lunacy Ticket": "P. Elliott Irrsinnsticket",
        "Charred Wedding Photograph": "Verkohltes Hochzeitsfoto",
        "Damaged Photo": "Beschädigtes Foto",
        "Harvest Festival Leaflet": "Erntedankfest-Flyer",
        "Decrepit Clapboard": "Marode Dachschindel",
        "Strode Realty Key": "Strode-Immobilienschlüssel",
        "Hawkins National Laboratory ID": "Laborausweis vom Hawkins National Laboratory",
        "Fuming Cordage": "Dampfendes Tauwerk",
        "Fuming Welcome Sign": "Dampfendes Willkommensschild",
        "Grandma's Cookbook": "Großmutters Kochbuch",
        "Dusty Noose": "Staubige Schlinge",
        "Emergency Certificate": "Notfallformular",
        "Psychiatric Assessment Report": "Psychiatrischer Beurteilungsbericht",
        "Shattered Glasses": "Kaputte Brille",
        "Mary's Letter": "Marys Brief",
        "Painted River Rock": "Bemalter Flusskiesel",
        "Children's Book": "Kinderbuch",
        "The Last Mask": "Die letzte Maske",
        "Shroud of Union": "Tuch der Vereinigung",
        "Vigo's Shroud": "Vigos Leichentuch",
        "Shroud of Binding": "Tuch der Bindung",
        "Shroud of Separation": "Tuch der Trennung",
        "Black Ward": "Schwarze Abwehr",
        "White Ward": "Weiße Abwehr"
    },
    "perks" : {
        "Quick & Quiet": "Schnell & Leise",
        "Sprint Burst": "Sprintboost",
        "Adrenaline": "Adrenalin",
        "Bond": "Bindung",
        "Prove Thyself": "Beweise dich",
        "Leader": "Anführer",
        "Empathy": "Einfühlungsvermögen",
        "Botany Knowledge": "Botanisches Wissen",
        "Self-Care": "Selbstfürsorge",
        "Iron Will": "Eiserner Wille",
        "Calm Spirit": "Seelenruhe",
        "Saboteur": "Saboteur",
        "Balanced Landing": "Ausgewogene Landung",
        "Urban Evasion": "Städtische Invasion",
        "Streetwise": "Pfiffig",
        "Sole Survivor": "Einziger Überlebender",
        "Object of Obsession": "Objekt der Besessenheit",
        "Decisive Strike": "Entscheidungsschlag",
        "Open-Handed": "Mit offener Hand",
        "Up the Ante": "Erhöhe den Einsatz",
        "Ace in the Hole": "Ass im Ärmel",
        "Left Behind": "Zurückgelassen",
        "Borrowed Time": "Geliehene Zeit",
        "Unbreakable": "Unbeugsam",
        "Technician": "Technikerin",
        "Lithe": "Flink",
        "Alert": "Wachsam",
        "We're Gonna Live Forever": "Wir werden ewig Leben",
        "Dead Hard": "Hart im Nehmen",
        "No Mither": "Kein Gejammer",
        "Wake Up!": "Aufwachen!",
        "Pharmacy": "Apotheke",
        "Vigil": "Nachtwache",
        "Tenacity": "Beharrlichkeit",
        "Detective's Hunch": "Tapps Verdacht",
        "Stake Out": "Observierung",
        "Dance With Me": "Tanz mit mir",
        "Windows of Opportunity": "Gelegenheit nutzen",
        "Boil Over": "Wildpferd",
        "Diversion": "Ablenkung",
        "Deliverance": "Befreiung",
        "Autodidact": "Autodidakt",
        "Breakdown": "Zerlegen",
        "Aftercare": "Nachsorge",
        "Distortion": "Verzerrung",
        "Solidarity": "Solidarität",
        "Poised": "Selbstsicher",
        "Head On": "Frontal",
        "Flip-Flop": "Flip-Flop",
        "Buckle Up": "Anschnallen",
        "Mettle of Man": "Der Eifer der Menschen",
        "Better Together": "Besser Gemeinsam",
        "Fixated": "Fixiert",
        "Inner Strength": "Innere Kraft",
        "Babysitter": "Babysitter",
        "Camaraderie": "Kameradschaft",
        "Second Wind": "Aufschwung",
        "Lucky Break": "Glück gehabt",
        "Any Means Necessary": "Mit allen Mitteln",
        "Breakout": "Ausbruch",
        "Dark Sense": "Dunkle Wahrnehmung",
        "Deja Vu": "Déjà-Vu-Erlebnis",
        "Hope": "Hoffnung",
        "Kindred": "Verwandt",
        "Lightweight": "Leichtgewicht",
        "No One Left Behind": "Niemand wird Zurückgelassen",
        "Plunderer's Instinct": "Plündererspürsinn",
        "Premonition": "Vorwarnung",
        "Resilience": "Widerstandsfähigkeit",
        "Slippery Meat": "Gerissenes Fleisch",
        "Small Game": "Niederwild",
        "Spine Chill": "Kalter Rückenschauer",
        "This Is Not Happening": "Das geschieht nicht",
        "We'll make it": "Wir schaffen das!",
        "Unnerving Presence": "Zermürbende Präsenz",
        "Brutal Strength": "Brutale Stärke",
        "Agitation": "Erregung",
        "Predator": "Räuber",
        "Bloodhound": "Bluthund",
        "Shadowborn": "Schattengeborener",
        "Enduring": "Beständig",
        "Lightborn": "Lichtgeborener",
        "Tinkerer": "Tüftler",
        "Stridor": "Stridor",
        "Thanatophobia": "Thanatophobia",
        "A Nurse's Calling": "Der Ruf einer Krankenschwester",
        "Save the best for last": "Das Beste kommt zum Schluss",
        "Play with your food": "Spiele mit deinem Essen",
        "Dying Light": "Erlischendes Licht",
        "Hex: The Third Seal": "Fluch: Das dritte Siegel",
        "Hex: Ruin": "Fluch: Ruin",
        "Hex: Devour Hope": "Fluch: Aufgezehrte Hoffnung",
        "Overwhelming Presence": "Erdrückende Präsenz",
        "Monitor & Abuse": "Beobachten und Zuschlagen",
        "Overcharge": "Überladen",
        "Beast of Prey": "Raubtier",
        "Territorial Imperative": "Gebietszwang",
        "Hex: Huntress Lullaby": "Fluch: Wiegenlied der Jägerin",
        "Knock Out": "K.O.",
        "Barbecue & Chili": "Barbecue und Chili",
        "Franklin's Demise": "Franklins Niedergang",
        "Fire Up": "Einheizen",
        "Remember Me": "Vergissmeinnicht",
        "Blood Warden": "Blutwächter",
        "Hangman's Trick": "Henkerstreich",
        "Surveillance": "Überwachung",
        "Make your Choice": "Triff deine Wahl",
        "Bamboozle": "Verblüffen",
        "Coulrophobia": "Coulrophobie",
        "Pop Goes the Weasel": "Pop Goes the Weasel",
        "Spirit Fury": "Zorn des Gespensts",
        "Hex: Haunted Ground": "Fluch: Heimgesuchter Boden",
        "Rancor": "Hass",
        "Discordance": "Uneinigkeit",
        "Mad Grit": "Irrer Mut",
        "Iron Maiden": "Eiserne Jungfrau",
        "Corrupt Intervention": "Korrupte Intervention",
        "Infectious Fright": "Infektiöse Angst",
        "Dark Devotion": "Dunkle Hingabe",
        "I'm All Ears": "Ich bin ganz Ohr",
        "Thrilling Tremors": "Durchdringendes Zittern",
        "Furtive Chase": "Heimliche Verfolgungsjagd",
        "Surge": "Spannungsstoß",
        "Mindbreaker": "Seelenbrecher",
        "Cruel Limits": "Grausame Grenzen",
        "Zanshin Tactics": "Zanshin-Taktik",
        "Blood Echo": "Blutecho",
        "Nemesis": "Nemesis",
        "Bitter Murmur": "Verbittertes Gemurmel",
        "Deerstalker": "Pirscher",
        "Distressing": "Verstört",
        "Hex: No One Escapes Death": "Fluch: Niemand entrinnt dem Tod",
        "Hex: Thrill of the Hunt": "Fluch: Nervenkitzel der Jagd",
        "Insidious": "Heimtückisch",
        "Iron Grasp": "Eiserner Griff",
        "Monstrous Shrine": "Monströser Schrein",
        "Sloppy Butcher": "Schlampiger Schlachter",
        "Spies from the Shadows": "Spione des Schattens",
        "Unrelenting": "Unerbittlich",
        "Whispers": "Geflüster",
        "Gearhead": "Ausrüstungsspezi",
        "Dead Man's Switch": "Totenschalter",
        "Hex: Retribution": "Fluch: Vergeltung",
        "Off the Record": "Vertraulich",
        "Red Herring": "Ablenkungsmanöver",
        "For the People": "Für das Volk"
    },
    "default-survivor" : {
        "displayName" : "(?)",
        "fullName" : null,
        "gender" : "(?)",
        "nationality" : "(?)",
        "role" : "(?)",
        "dlc" : "(?)",
        "difficulty" : "(?)",
        "perks" : [],
        "biography" : "(?)",
        "url" : null,
        "image" : "https://cdn.discordapp.com/attachments/626462024913911818/747596761710985347/default-surv.webp"
    },
    "default-killer" : {
        "displayName" : "(?)",
        "displayName_de" : "(?)",
        "fullName" : "(?)",
        "alias" : [],
        "gender" : "(?)",
        "nationality" : "(?)",
        "height" : "(?)",
        "realm" : "(?)",
        "dlc" : "(?)",
        "power" : "(?)",
        "weapon" : "(?)",
        "speed" : "(?)",
        "terror_radius" : "(?)",
        "difficulty" : "(?)",
        "perks" : [],
        "biography" : "(?)",
        "url" :  null,
        "image" : "https://cdn.discordapp.com/attachments/626462024913911818/747596755788496916/default-killer.webp"
    },
    "default-perk" : {
        "displayName" : "(?)",
        "displayName_de" : "(?)",
        "description" : "(?)",
        "isTeachable" : false,
        "teachableInfo" : {
            "character" : null,
            "lvl" : -1
        },
        "url" : null,
        "image" : "https://cdn.discordapp.com/attachments/191341481242525696/747605087420940288/No_Perk_no_es_here.png"
    },
    "default-offering" : {
        "displayName" : "(?)",
        "displayName_de" : "(?)",
        "description" : "(?)",
        "url" : null,
        "image" : "https://cdn.discordapp.com/attachments/191341481242525696/747598229201354762/No_Offering_no_es_here.png"
    }
}